C:\Users\HP\Desktop\HADOOP\IGNITE\IGNITE\IgniteProject\Ignite\src\main\java\pl\lokiec\mg\Logout.java
C:\Users\HP\Desktop\HADOOP\IGNITE\IGNITE\IgniteProject\Ignite\src\main\java\pl\lokiec\mg\Login.java
C:\Users\HP\Desktop\HADOOP\IGNITE\IGNITE\IgniteProject\Ignite\src\main\java\pl\lokiec\mg\DoLogin.java
